@relation training_set

@attribute text string
@attribute tweet_class {positive,negative,neutral}

@data
'\'manconi e cuperlo (pd): prolungare la legislatura per approvare lo ius soli\'',neutral
'\'\\\"cittadinanza, al senato manca il numero sullo ius soli. calderoli: \\\"\\\"e? morto e sepolto\\\"\\\"\\\"\'',neutral
'\'della vostra stessa pasta. gianfranco fini favorevole allo ius soli\'',neutral
'\'\\\"destra, stelle, centristi e un terzo del pd assenti. liberieuguali presenti. finale farsa su ius soli. /\\\"\'',neutral
'\'\\\"di maio: \\\"\\\"ius soli? la priorita\\\' e\\\' il reddito di cittadinanza\\\"\\\"\\\"\'',neutral
'\'\\\"di maio: priorita\\\' e\\\' sostegno al reddito italiani, non ius soli\\\"\'',neutral
'\'di rinvio in rinvio iussoli\'',neutral
'\'diego fusaro demolisce bergoglio: la sua omelia pro ius soli ispirata da soros. meglio ratzinger\'',neutral
'\'domani mattarella scioglie il parlamento. tramonta lapprovazione dello ius soli\'',neutral
'\'domani mattarella potrebbe sciogliere le camere bloccando lo ius soli noiussoli\'',neutral
'\'dopo lo stop allo ius soli il movimento italiani senza cittadinanza scrive a mattarella\'',neutral
'\'\\\"dopo oltre due anni di attesa laula del senato dedica pochi minuti allo iussoli perche? manca il numero legale. la legislatura finisce male, molti assenti nel pd che accusa il ms.\\\"\'',neutral
'\'durante la conferenzastampa di fine anno gentiloni parla anche dello iussoli\'',neutral
'\'\\\"e al senato salta lo ius soli causa mancanza del numero legale. assenti tutto il gruppo dell\\\'ms, il centro e ...\\\"\'',neutral
'\'\\\"e comunque lo ius soli non riguarda stranieri, ma persone nate in italia\\\"\'',neutral
'\'Manca il numero legale in Aula al #Senato: stop ad esame su Ius soli\'',neutral
'\'Buon Natale! Nella Santa Messa #Francesco richiama lo #IusSoli\'',neutral
'\'\\\"Ius soli, Boldrini: \\\\\\\"\\\"Promessa mancata, grave responsabilit\\\\u00e0 assenti\\\\\\\"\\\". Avvenire: \\\\\\\"\\\"Fine ingloriosa Parlamento\\\\\\\"\'',neutral
'\'\\\"Cittadinanza, al Senato manca il numero sullo Ius soli\\\"\'',neutral
'\'\\\"Il 28 si sciolgono le Camere, ancora polemica su ius soli\\\"\'',neutral
'\'\\\"Ius soli, appello della minoranza Pd: legislatura pi lunga per votare la legge\\\"\'',neutral
'\'\\\"Ius Soli, il Pd non si arrende\\\"\'',neutral
'\'Marco Minniti tra i 29 senatori del Pd che hanno disertato il voto sullo ius soli\'',neutral
'\'\\\"Ius soli, al Senato manca il numero legale. Assenti tutti i M5s e i centristi. Manca 1/3 dei Dem+\\\"\'',neutral
'\'\\\"Ius soli, secondo il sondaggio Swg la maggioranza degli italiani contraria\\\"\'',neutral
'\'\\\"Ius soli, Gianni Cuperlo e Luigi Manconi chiedono a Mattarella di rinviare le elezioni di due settimane\\\"\'',neutral
'\'\\\"Paolo Gentiloni, Ius soli: la promessa horror, approvato dopo le elezioni\\\"\'',neutral
'\'\\\"Ius soli, il tentativo disperato al Senato: manca il numero legale\\\"\'',neutral
'\'Manca il numero legale in Aula al Senato: stop ad esame su Ius soli\'',neutral
'\'\\\"Ius soli, la lettera a Mattarella di #Italiani Senza Cittadinanza:\\\"\'',neutral
'\'Sempre pi italiani sono contro. E Renzi fa affondare lo ius soli\'',neutral
'\'\\\"Ius soli, l\\\'Unicef insulta chi non lo vuole:\\\"\'',neutral
'\'\\\"Ius soli, il bluff della sinistra per scaricare il no sul Colle\\\"\'',neutral
'\'Cittadinanza. Tramonta ipotesi Ius soli: stop all\\\'esame del ddl per mancanza del numero legale\'',neutral
'\'Ius soli affossato in Senato\'',neutral
'\'\\\"Ius soli, al Senato manca il numero legale. Esultano Lega e Fi. Assenti i senatori M5s\\\"\'',neutral
'\'\\\"VIDEO - Ius soli, l\\\'appello degli italiani senza cittadinanza a Mattarella \\\"\'',neutral
'\'\\\"Ius soli, bufera sugli assenti. Boldrini: \\\"\\\"Grave responsabilit\\\"\\\"\\\"\'',neutral
'\'\\\"Ius soli, l\\\'appello di Manconi a Mattarella: \\\\Troviamo il tempo di discutere la legge\\\\\\\"\\\"\\\"\'',neutral
'\'VIDEO - Slitta la discussione sullo ius soli: esultano le opposizioni\'',neutral
'\'VIDEO - Salvini: \\\\L\\\'addio allo Ius soli \\\\u00e8 il nostro regalo di Natale\\\\\'',neutral
'\'\\\"Ius soli alimenta la polemica politica, in attesa che Mattarella sciolga le Camere\\\"\'',neutral
'\'\\\"Ius soli, appello a Mattarella: \\\'Non lasciateci ancora soli\\\'\\\"\'',neutral
'\'\\\"L\\\'epilogo della legislatura: nuovo stop allo Ius soli, al Senato manca numero legale\\\"\'',neutral
'\'\\\"ddl #IusSoli , manca il numero legale al Senato. Grasso ha fissato nuova seduta al 9 gennaio 2018\\\"\'',neutral
'\'\\\"Manca numero legale in Aula Senato, stop a Ius Soli \\\"\'',neutral
'\'e mentre si parla di ius soli.  sudtirolesi potrebbero diventare austriaci? \'',neutral
'\'e\\\' allucinante che ci sia gente che goda...per l\\\'affossamento dello iussoli....poveri di animo ...insignificanti...che non capiscono nemmeno di cosa stanno parlando.....che vergogna.\'',neutral
'\'\\\"e\\\' andata cosi? ma, alla fine, qualche mese di attesa e ci sara? un nuovo parlamento ed un nuovo governo che affronteranno la questione iussoli in modo forse piu? adeguato e ponderato liberi, finalmente, dalla propaganda e rigidita? di posizioni che abbiamo constatato in questi mesi\\\"\'',neutral
'\'\\\"elezioni , si chiude la legislatura senza ius soli. scontro sui programmi\\\"\'',neutral
'\'elezioni a marzo....! no ius soli...!!!\'',neutral
'\'\\\"elezioni, meloni: priorita? fdi lavoro e famiglia, per sinistra ius soli e omofobia - fratelli d\\\'italia\\\"\'',neutral
'\'\\\"elezioni, oggi mattarella scioglie le camere. ius soli, gentiloni chiude il dossier\\\"\'',neutral
'\'\\\"emanuele \\\"\\\"la legge proposta sullo ius soli non e? una buona legge. la cittadinanza e? di basilare importanza per...\\\"\'',neutral
'\'\\\"euronews - ius soli, avvenire: politici ignavi  paginanuova press\\\"\'',neutral
'\'euronews - unicef: stop allo ius soli e? incivile  paginanuova press\'',neutral
'\'gli scrivono al presidente mattarella ( ) chiedendo altro tempo al parlamento per legiferare su iussoli noirestiamo (via ) \'',neutral
'\'studenti di italiani senza cittadinanza scrivono a mattarella per far approvare la legge sullo ius soli /\'',neutral
'\'grazie e piacere mio blog se interessa  con anche pezzo sullo iussoli\'',neutral
'\'ho gia? postato il link al testo di legge. si potra? avere la cittadinanza sia con ius culturae sia con ius soli. se si usera? il canale ius soli non sara? richiesto di aver frequentato un sol giorno di scuola italiana.\'',neutral
'\'il pianto delle vedove dello ius soli - giornaleditalia\'',neutral
'\'\\\"il popolo del blog,notizie,attualita?,opinioni : ius soli: game over,legge  oggi, l\\\'ital.\\\"\'',neutral
'\'\\\"il post di , sullo ius soli, veramente merita di esser letto.\\\"\'',neutral
'\'il post di maurizio maraglino is out!  iussoli\'',neutral
'\'il primo effetto dello ius soli: boom di voti al partito islamico - \'',neutral
'\'il problema e? iussoli si?? iussoli no? o forse e? iussoli perche??\'',neutral
'\'il quotidiano di ecmfad e? uscito!  natale iussoli\'',neutral
'\'il retroscena su mattarella e ius soli: perche? la legge non approdera? piu? in parlamento noiussoli -\'',neutral
'\'\\\"il risultato di accoglienza, tolleranza e iussoli \\\"\'',neutral
'\'il senato chiude i giochi: tramonta lo ius soli e la modifica dei vitalizi \'',neutral
'\'il senatore manconi attacca il pd sullo iussoli. le notizie ora in primo piano sulla nostra app russia nato tech \'',neutral
'\'il sole  ore - prima pagina dopo lo stop allo ius soli il movimento italiani senza cittadinanza scrive a mattarella - il  del parlamento si e? chiuso al senato con il via libera alla legge di bilancio e lo stop tra le polemiche allo ius soli. il ...\'',neutral
'\'\\\"il sole  ore - prima pagina ius soli, pressing della minoranza pd: allungare legislatura per approvarlo - game over per la legislatura. domattina, dopo la conferenza stampa di fine anno, il premier paolo gentiloni salira? al quirinale. dopo il mancat...\\\"\'',neutral
'\'\\\"ilham mounssif, attivista impegnata per l\\\'approvazione dello ius soli, attacca matteo salvini: togliamo a lui la cittadinanza. anche per questo noiussoli marzovotolega   via\\\"\'',neutral
'\'imbarazzo dem sullo ius soli (di a. mauro) \'',neutral
'\'\\\"immigrati \\\"\\\"fascisti\\\"\\\" che dicono no allo ius soli /\\\"\'',neutral
'\'immigrati africa immigrazione clandestini iussoli \'',neutral
'\'i ragazzi dello ius soli negato italiani dell\\\'anno per l\\\'espresso  via\'',neutral
'\'i ragazzi dello ius soli negato: italiani dell\\\'anno  per l\\\'espresso\'',neutral
'\'\\\"i razzisti dello ius soli: \\\"\\\"fascista chi e? contrario\\\"\\\"\\\"\'',neutral
'\'idiota e fascista: cosi? unicef definisce chi e? contro lo ius soli -\'',neutral
'\'\\\"il  si sciolgono camere, ancora polemica su ius soli \\\"\'',neutral
'\'\\\"il cardinale parolin:  iussoli, bene lo stop, il paese e? gia? lacerato\\\"\'',neutral
'\'\\\"il cosiddetto \\\"\\\"ius soli\\\"\\\" non riguarda gli \\\"\\\"sbarcati\\\"\\\"\\\"\'',neutral
'\'\\\"il mattino. flop ius soli, lunicef sbrocca su twitter: idiota, fascista le offese sui social a chi e? contro la legge per la cittadinanza ai bambini stranieri (ofcs)\\\"\'',neutral
'\'il movimento  stelle era a favore dello ius soli - il post\'',neutral
'\'\\\"ius soli: in democrazia scelgono i cittadini, non le marie antoniette del mondo globalizzato - imola oggi\\\"\'',neutral
'\'\\\"ius soli: ms,fatte promesse da marinaio\\\"\'',neutral
'\'\\\"iussoli, luigi manconi a radio rai: \\\"\\\"troppi i  senatori assenti: il pd non ci ha creduto\\\"\\\" - rai news \\\"\'',neutral
'\'iussoli: marocchina naturalizzata italiana preparava attentato\'',neutral
'\'l\\\'emergenza e? la denatalita?. no iussoli si redditodimaternita?\'',neutral
'\'la cittadinanza italiana bisogna meritarsela. e allora che ci faceva thiago motta in nazionale? iussoli\'',neutral
'\'\\\"la consigliera sumaya abdel qader: \\\"\\\"ius soli e? solo questione di tempo, hanno vinto solo una battaglia\\\"\\\" - \\\"\'',neutral
'\'\\\"la discussione in senato della legge sullo ius soli e? stata rimandata al  gennaio, e ora e? molto improbabile venga approvata entro la fine della legislatura\\\"\'',neutral
'\'la fine ingloriosa dello ius soli - giornaleditalia\'',neutral
'\'\\\"la kyenge piange per lo ius soli: \\\"\\\"traditori!\\\"\\\"\\\"\'',neutral
'\'legislatura finita senza ius soli e vitalizi \'',neutral
'\'\\\"lo stop allo ius soli ha creato non pochi scompensi dentro al partito democratico, ecco cosa sta succedendo...\\\"\'',neutral
'\'\\\"new info online cittadinanza, al senato manca il numero sullo ius soli. calderoli: \\\"\\\"e? morto e sepolto\\\"\\\" - nuova seduta il  gennaio con all\\\'odg \\\"\\\"comunicazioni del presidente\\\"\\\". il provvedimento riguardava mila minori. fi e lega esultano. unicef: \\\"\\\"sia...\\\"\'',neutral
'\'\\\"news onus infos ius soli, giochi chiusi: mattarella e? pronto a sciogliere le camere\\\"\'',neutral
'\'no ius soli? per l\\\'unicef sei \\\'idiota e fascista\\\'\'',neutral
'\'quando si parla di ius soli.. questo video vi chiarira? qualche dubbio. minuto : intervento dott. gian carlo blangiardo\'',neutral
'\'\\\"scambi incrociati di accuse tra pd, ms e mdp sullattribuzione di colpa del naufragio dello iussoli; depetris contro pd, martina contro ms, ms in silenzio stampa. spunti su .\\\"\'',neutral
'\'\\\"si? alla manovra, ma no allo iussoli. manca il numero legale. verso lo scioglimento delle camere \\\"\'',neutral
'\'\\\"so che scappano dalla guerra (non tutti),ma io vorrei che il governo si concentrasse prima sui problemi che ci sono in italia o almeno al inceve a me sembra che si pensi solo allo ius soli immigrazione ecc ecc\\\"\'',neutral
'\'\\\"ultimi appelli a mattarella per lo ius soli. manconi: \\\"\\\"bastano due settimane\\\"\\\"\\\"\'',neutral
'\'\\\"so cosa vuol dire crescere e studiare in un paese, impararne la cultura, i valori ma non esserne cittadino. conosco anche la gioia del diventarlo con la cittadinanza e potersi definire, anche legalmente, italiani. doloroso sapere che mila ragazzi non potranno farlo. iussoli\\\"\'',positive
'\'vivo nel paese dove razzisti che si improvvisano teologi e spiegano il vangelo al papa iussoli\'',positive
'\'viva lo iussoli in tutto il mondo!!! io sarei cittadino svizzero e non di questo schifo di stato!\'',positive
'\'davvero rattrista la mancata approvazione dello iussoli. la prossima campagnaelettorale andra? centrata molto anche sul tema dei diritti.\'',positive
'\'\\\"davvero brutto chiudere la legislatura senza approvare lo ius soli, soprattutto bruttissima la scena di tutti quei banchi vuoti.\\\"\'',positive
'\'\\\"di fronte alla vergogna di non presentarsi in senato per lo ius soli,e? opportuno non ricandidare nel pd quei senatori.\\\"\'',positive
'\'dicembre  = giornata nazionale della vigliaccheria del senato italiano . . iussoli dicembre italianisenzacittadinanza cittadinanza senatoitaliano senato statoitaliano\'',positive
'\'dicembre il giorno del diritto negato iussoli\'',positive
'\'\\\"diciamo che lo ius sanguinis aveva un senso quando noi italiani eravamo un popolo di emigranti che volevano mantenere un legame con la madre patria. oggi e? tutto diverso, ben venga lo iussoli.\\\"\'',positive
'\'\\\"dio santo, non credo di essermi mai vergognato cosi? tanto in vita mia. iussoli vergogna ms msbuffoni fascismo razzismo odio\\\"\'',positive
'\'\\\"dipendente , perche? non hai votato lo ius soli???\\\"\'',positive
'\'dobbiamo convincere il signor presidente ius soli et ius culturale sono un principio di civilta?\'',positive
'\'\\\"docente? vergognati. i bambini non sono abili alla leva, imbecille. lo iussoli da? il diritto di nascita/cittadinanza.\\\"\'',positive
'\'\\\"domanda per i razzisti e i contrari allo ius soli: \\\"\\\"e? piu? a rischio-radicalizzazione un islamico preso a calci...\\\"\'',positive
'\'\\\"dopo cio? che e? successo oggi in senato, ci sono davvero due sole scelte: andarsene da questo paese o fare qualcosa in prima persona per cambiarlo. altrimenti siamo tutti colpevoli: attori, spettatori e coloro che fanno mancare il numero legale iussoli vergogna\\\"\'',positive
'\'dopo laffossamento dello ius soli o meglio ius culturae fa venire tanta amarezza...\'',positive
'\'dopo mesi di cavalcate trionfali muore anche questa occasione di civilta?. speriamo serva da lezione ai propagandisti iussoli\'',positive
'\'dopo sta storia dello iussoli credo proprio che votero? scheda bianca nel\'',positive
'\'dopo vado a vedere chi ha fatto mancare numero legale su iussoli. non vorrei rischiare di votarlo.\'',positive
'\'dove erano i cittadini-senatori-portavoce del movomento palle quando si doveva votare lo ius soli ? tutti assenti e tutti in fila a prendere la razione quotidiana di croccantini dalla casaleggio & co... dementi ed ipocriti....\'',positive
'\'dove lo iussoli e? gia? legge!\'',positive
'\'\\\"doveva essere il presidente grasso a inserire la legge sullo ius soli tra i primi provvedimenti d\\\'approvare e non per ultimo...comunque la figuraccia l\\\'hanno fatta tutti al senato...ecco perche? il senato doveva essere eliminato, la maggior parte delle leggi si arenano..\\\"\'',positive
'\'\\\"dovevate rimanere cmq in aula, compatti a dimostrare la volonta? della sx di trasformare il diritto in legge! e invece avete racimolato la solita figura di merda globale. complimenti, siete dei fenomeni di strategia politica iussoli\\\"\'',positive
'\'due parole sullo iussoli ai nostri parlamentari siete vergognosi..\'',positive
'\'\\\"e adesso godetevi il vostro tinello, non credo che andrete piu? lontano di cosi?, ignoranti e razzisti iussoli\\\"\'',positive
'\'\\\"e che succede a chi semina indifferenza? perche? esclusione e? brutta bestia, ma essere indifferenti di fronte a chi chiede di essere riconosciuto, a chi chiede di avere diritti che dovrebbero essere gia? suoi e? anche peggio. prendi iussoli e  assenti del pd. quelli che seminano?\\\"\'',positive
'\'e ci sono pure quelli che brindano per l\\\'affossamento dello iussoli.. davvero penoso vivere affianco a dei razzisti.\'',positive
'\'e ci stupiamo che abbiamo eletto gente che non vota lo ius soli?\'',positive
'\'\\\"e comunque quel terzo del pd assente sullo iussoli fa molto, ma molto, piu? schifo di grillini e compagnia cantante...\\\"\'',positive
'\'\\\"e dopo questa porcheria sullo ius soli ho lassoluta certezza di chi non votare. dagli assenteisti, agli esultanti, a quelli che non sono andati tanto si perdeva. siete disgustosi\\\"\'',positive
'\'e noi dovremmo dare il voto a uno che ha detto: non approvando lo ius soli abbiamo fatto il regalo di natale agli italiani?? neanche sotto tortura avra? il mio voto\'',positive
'\'\\\"e? incivile escludere dalla cittadinanza e dai suoi benefici mila bambini nati e cresciuti in italia legando la loro condizione a quella dei genitori che, nel frattempo, possono veder scaduto il loro permesso di soggiorno con il relativo obbligo di rimpatrio. iussoli\\\"\'',positive
'\'\\\"e? quello che dico anche io, che allo ius soli sono favorevole\\\"\'',positive
'\'\\\"e? quello che lo ius soli prevedeva infatti, e lintegrazione tramite ciclo scolastico e? quello per cui ho parlato negli screen. spiegando i vari processi di appropriazione culturale.\\\"\'',positive
'\'\\\"e? una questione di principio. o meglio, e? una questione di diritti. iussoli\\\"\'',positive
'\'e? vergognoso quello che (non) avete fatto su iussoli\'',positive
'\'e? triste tornare a casa e non essere atteso da nessuno ma e? ancora piu? triste e disperante quando non si attende niente e nessuno. eppure ce? sempre una voce che sussurra:io sto alla porta e busso buon natale agli  bambini e ragazzi italiani senza cittadinanza iussoli\'',positive
'\'fa male sapere che ci sono persone desiderose di essere cittadini italiani e che gli venga negato di esserlo. e il no proviene proprio da chi si ritiene un cristiano iussoli\'',positive
'\'fa male vedere chi esulta per affossamento iussoli negare diritti ad mila ragazzi era semplicemente doveroso. ah dimenticavo sono gli stessi che strenuamente difendono il presepe e altri simboli cristiani. natale squallidi sciacalli\'',positive
'\'\\\"fa male vedere chi esulta per l\\\'affossamento definitivo dello iussoli. perche? a voi non avrebbe tolto nulla, mentre a quegli  ragazzi avrebbe dato tanto, il diritto di non sentirsi indesiderati nel loro paese. il vostro sciocco giubilo e? un\\\'onta grave per quel paese.\\\"\'',positive
'\'ho preso nomi e cognomi di tutti quelli che hanno fatto di tutto per non votare lo ius soli. col cazzo che vi voto!\'',positive
'\'sono loro gli italiani dell\\\'anno: ecco perche? non bisogna smettere di lottare per lo ius soli\'',positive
'\'\\\"sono per lo iussoli, ma vorrei far notare che i genitori del piccolo erano sposati e che si spostavano per un censimento non per fuggire.\\\"\'',positive
'\'il fallimento della legge sullo iussoli e? una sconfitta per l\\\'italia intera. forse anch\\\'io avrei potuto fare di piu?? e? quello che tutti noi dobbiamo chiederci.\'',positive
'\'il fallimento di un sogno e il tradimento di un diritto. iussoli \'',positive
'\'\\\"il futuro e? colorato, multietnico, pieno di emozioni, tutte all\\\'insegna del pieno rispetto dell\\\'altro. iussoli\\\"\'',positive
'\'il parlamento di fronte allo iussoli e? fuggito. manco fosse la finanza.\'',positive
'\'il parlamento di vigliacchi capace di non decidere rispecchia pienamente il popolo che lo rappresenta. iussoli\'',positive
'\'\\\"il parlamento ha il dovere di votare sullo iussoli. come spiega oggi su repubblica. c\\\'e? tempo. scappare di fronte ai diritti e? una resa alla ragione, significa gettare benzina sul\\\"\'',positive
'\'\\\"il parlamento ha approvato quasi tutte le leggi che erano rimaste sotto il tappeto. tutte, tranne lo iussoli. paura, mancanza di coraggio e scarsa visione sul futuro di questi ragazzi.\\\"\'',positive
'\'il parlamento non ha approvato la legge sullo iussoli. il futuro dell\\\' italia sara? comunque sempre piu? colorato e multiculturale. sara? la storia a fare italiani questi figli del nostro paese\'',positive
'\'il partito democratico e? il primo responsabile della mancata approvazione dello ius soli\'',positive
'\'il passo avanti fatto per il biotestamento e? stato annullato dall\\\'affossamento dello iussoli\'',positive
'\'il pasticcio dello ius soli dimostra il limite della democrazia italiana. chi ha fatto mancare il numero legale...\'',positive
'\'\\\"il patriota ama la propria patria, il fascista odia gli altri c\\\'e una bella differenza sapevatelo fascismo iussoli\\\"\'',positive
'\'il pd ce lha messa tutta per approvare lo iussoli ma grazie a lega e ms manca il numero legale per approvarlo anche al senato. alle elezioni facciamo la scelta giusta avanti\'',positive
'\'il pd cera e se oggi si parla di iussoli e? merito di renzi.\'',positive
'\'\\\"il popolo italiano avrebbe tradito i valori civili se avesse messo navi da guerra nel mediterraneo e non avesse fatto entrare un immigrato. cio? non l\\\'ha fatto. pensare ad uno iussoli che non scavalchi i diritti degli italiani che sono nel disagio non e? un tradimento ma prudenza,\\\"\'',positive
'\'il presidente mattarella deve osare. deve sfidare loscurantismo. lo iussoli deve essere legge. allunghiamo la legislatura di pochi giorni. contro chi fugge compresi i indegni del mio pd.\'',positive
'\'il presidente mattarella rinvii lo scioglimento delle camere al  gennaio in modo da poter approvare lo ius soli noncisonopiu?scuse /\'',positive
'\'\\\"il problema di questo paese sono quegli italiani, milioni, incapaci di integrarsi. pretendono di vivere in una veteronazione basata sulla discriminazione e apartheid, negando la realta?. italianisenzadiritti iussoli velomeritatecalderoli italiastatocanaglia noiussoli\\\"\'',positive
'\'\\\"il problema e? quello. lo ius soli serviva ad allineare quelle persone cresciute qui, come me e lei, con gli italiani nati e cresciuti qui.\\\"\'',positive
'\'il punto e? ke lo ius soli nn significa dare la cittadinanza a ki viene dall estero ma a ki nasce e cresce sul territorio vedi usa\'',positive
'\'\\\"il riferimento ai propri figli (che sono cittadini italiani per sorte) legato allargomento dello ius soli e? potentemente fastidioso, anche se lintenzione non era quella\\\"\'',positive
'\'il rinvio dello iussoli per mancanza del numero legale e? l\\\'ennesima punta di ridicolo toccata da questo paese\'',positive
'\'\\\"il senato affossa lo iussoli disertando l\\\'aula e manca il numero legale per  voti. di questi,  del pd e  di mdp (totale ). e qualcuno ancora li chiama \\\"\\\"sinistra\\\"\\\"?!\\\"\'',positive
'\'il senatore esposito e figli fanno ciaone agli  italiani che resteranno senza cittadinanza anche questo natale iussoli senatoripd\'',positive
'\'il vostro qual\\\'e?? non votare leggi capaci di rendere la societa? piu? umana!? iussoli\'',positive
'\'il voto utile e? ignorare chi ha ignorato cinicamente voto su iussoli elezioni\'',positive
'\'\\\"i destinatari dello ius soli non hanno bisogno di aiuto, anzi, l\\\'assegnazione del diritto spronera? i genitori immigrati a mettersi e mantenersi in regola e quindi a contribuire, con le imposte, ad aiutare indirettamente chi e? in difficolta?.\\\"\'',positive
'\'i figli d\\\'immigrati imparano a leggere e scrivere in italiano. ma lo sforzo della scuola italiana - sostenuta dall\\\'intera societa? - e? un investimento nullo per i politici che hanno fatto naufragare lo iussoli. mio commento al articolo di franco lorenzoni \'',positive
'\'i grillini si identificano con la lega e la peggiore destra possibile. adesso e? chiaro di che pasta sono fatti.... iussoli\'',positive
'\'i grillini tutti assenti in senato per far mancare il numero legale alla legge sullo ius soli. tutti. roba che piu? squadristi di loro nessuno mai.\'',positive
'\'\\\"i miei auguri di natale vanno ai genitori di quei ragazzi che l\\\'italia non ha voluto come suoi cittadini. insegnate loro che l\\\'opportunismo e? un vizio, non una virtu?. iussoli\\\"\'',positive
'\'\\\"i migranti non scappano a causa dei trafficanti umani, i veri trafficanti sono le guerre, la fame, la mancanza di medicine...ma non si vergognano a manipolare in tal modo la  cosa potevano farla e non l\\\'hanno fatta per opportunismo: lo iussoli.\\\"\'',positive
'\'\\\"i nemici dello iussoli ( razzisti, neonazisti, fascisti e ignoranti vari) sono riusciti a imporre  falsi clamorosi: ) la legge serve a legalizzare quelli dei barconi, ) la legge rende italiani chi nasce in italy, ) la legge regala dei diritti ma non comporta dei doveri\\\"\'',positive
'\'\\\"i sei ragazzi in questa foto, hanno solo una cosa di piu? degli  che attendono lo iussoli, la cittadinanza. e non ci tengono a conservare questa differenza. .\\\"\'',positive
'\'ignorante. anche senza legge su iussoli il futuro dell\\\' italia sara? comunque sempre piu? colorato e multiculturale. sara? la storia a fare italiani questi figli del nostro paese\'',positive
'\'in francia esiste lo ius soli e se straniero frequenti un biennio in scuola francese in altri  anni acquisisci la cittadinanza a domanda.\'',positive
'\'\\\"iussoli disertori della dignita? umana,del diritto,della responsabilita? per misero calcolo in  in mio nome\\\"\'',positive
'\'\\\"la cittadinanza italiana e? un valore a cui tutti hanno diritto con il giusto percorso. vergogna sono i \\\"\\\"marchettari\\\"\\\" dello ius soli\\\"\'',positive
'\'\\\"la cosa un po schifosa e? che quando si parlava di matrimoni gay, usavano i bambini come scudo e chi glie lo spiega cosa fanno due maschi a letto?!; adesso invece che avrebbero potuto (e dovuto) tutelare milioni di bambini, neanche si presentano in aula per votare. iussoli\\\"\'',positive
'\'la domanda rimane: come ti sei guadagnato la cittadinanza italiana? iussoli\'',positive
'\'\\\"litalia rimane una repubblica delle banane, complimenti italioti! iussoli antifa\\\"\'',positive
'\'non sciolga le camere faccia votare prima lo ius soli\'',positive
'\'non so se mi faccia piu? schifo chi e? scappato o chi sta usando lo ius soli per la solita manfrina e allora il pd?...credo mi assestero? su un diplomatico fate schifo ugualmente...lei si e? qualificata quando mi ha dato della piddina...adesso torni a cucinare\'',positive
'\'purtroppo! ma questo non giustifica in nessun modo l\\\'assenza di senatori dem. lo ius soli e? una bandiera per la sinistra\'',positive
'\'\\\"quale miglior finale di lesigliatura, questo. farsi prendere per il culo da gentaglia come calderoli e compagnia. guardateli, come gongolano. ricorderemo i nomi di chi oggi non era presente in senato a difendere una battaglia di civilta?. lo ricorderemo. iussoli\\\"\'',positive
'\'\\\"quale sarebbe l\\\'italianita?? tipo: vesuvio lavali col fuoco o terroni? l\\\'italiella non esiste e manco gli italiani dal ! tra un siciliano, un napoletano ed un trentino non c\\\'e? niente in comune, memmeno la lingua! lo iussoli e? una legge di civilta?!\\\"\'',positive
'\'\\\"se la legge riguarda i minorenni cosa c\\\'entrano i concorsi pubblici, gli ordini professionali e l\\\'elettorato? confusione e ambiguita? sembrano le caratteristiche principali del cosiddetto iussoli \\\"\'',positive
'\'\\\"sicuramente conoscerete qualcuno che si dice di sinistra che vota stelle, si che lo conoscete, sono milioni. bene, dategli tranquillamente del fascista baciapile, lui capira?. iussoli\\\"\'',positive
'\'\\\"siete dei buffoni perche? state facendo credere alla gente ignorante, una cosa diversa da quella che e?. con lo iussoli o senza,ci sono italiani che hanno un colore della pelle diversa dalla nostra. ma sono italiani!! tu sei un fascista e in italia e? un reato esserlo!!\\\"\'',positive
'\'\\\"signor presidente della repubblica, intervenga lei, faccia in modo che il  gennaio venga approvata lo ius soli\\\"\'',positive
'\'sinceramente a me spiace non sia stato approvato lo ius soli.\'',positive
'\'si? ma i fatti sono pro ius soli.\'',positive
'\'si? parla molto di luce in questo natale. auguriamoci percio? una migliore illuminazione delle menti dei cittadini e dei governanti di ogni ordine e grado. buon natale a voi alle vostre famiglie. natale dicembre babbonatale unapoltronaperdue frozen iussoli\'',positive
'\'solidarieta? a e iussoli\'',positive
'\'solidarieta? ad e a non mollate!! iussol\'',positive
'\'\\\"sono nata allestero e me ne sono fregata altamente dell ius soli. ergo forse vale anche per altri, no?!\\\"\'',positive
'\'\\\"sono pienamente a favore dello ius soli ma caro luca, perdonami se lo dico schiettamente, questa volta hai scritto una stupidaggine\\\"\'',positive
'\'\\\"stasera andro? in chiesa, alla messa di mezzanotte,quando tireranno fuori quel bambino migrante(senza permesso di soggiorno) per adagiarlo sulla culla mentre si faranno il segno della croce sputero? su molte persone! iussoli\\\"\'',positive
'\'vorrei che i politici che hanno votato contro lo iussoli studiassero un po\\\' e leggessero i libri che devo portare all\\\'esame: racconti di italiani che sbarcavano clandestinamente in america e venivano calpestati dagli statunitensi razzisti.\'',positive
'\'\\\"vorrei solo dire ai bambini e ragazzi dello iussoli: diffidate da chi vi dice che la cittadinanza va  di diritto cittadini, dacche? siete  batteremo per l\\\'uguaglianza sempre, contro la retorica dell\\\'  e? una sconfitta, ma non la fine. vi abbraccio.\\\"\'',positive
'\'\\\"votiamo lo ius soli: e? possibile, e? giusto, e? nell\\\'interesse di tutti\\\"\'',positive
'\'\\\"vergogna per gli assenti. ma anche per grasso, che non riconvoca il senato per il  dicembre sullo iussoli.\\\"\'',positive
'\'\\\"vergogna siamo proprio un paese incivile: ius soli, al senato manca il numero legale. assenti tutti i ms e i centristi. manca  dei dem / via\\\"\'',positive
'\'vergogna!si? allo ius soli!\'',positive
'\'\\\"ma per favoreee! ...avete rotto con questa storia dello ius soli, mettetelo al giudizio di un referendum poi vedrete quei  milioni di italiani a rischio esclusione come vi risponderanno. le priorita per la nostra nazione sono: sanita, scuola, lavoro e pensioni adeguate ...ok!?\\\"\'',negative
'\'meglio bloccarli subito i traditori degli italiani con loro ci puo essere solo un dialogo sottomissione a gente straniera ius soli e cazzate varie che dio vi perdoni del male che state facendo a noi italiani.\'',negative
'\'meglio di maio accompagnati che ius soli\'',negative
'\'vittoria di grande civilta e buon senso per la fine dello ius soli. noiussoli avanti cosi!\'',negative
'\'\\\"con il no allo iussoli, che le sinistre volevano senza giustificazioni che non fossero irragionevolmente buoniste e senza controbattere alle ragioni contrarie, ed anche contro la volonta della maggioranza dei cittadini, ha vinto la democrazia.\\\"\'',negative
'\'ciaone iussoli pd noiussoli aspettando il  marzo... renzi gentiloni acasa\'',negative
'\'ciaone allo ius soli. grazie lega e grazie matteo salvini\'',negative
'\'cara boldrini il governo deve ascoltare il popolo italiano. se il popolo a torto o a ragione mon vuole lo ius soli ...cosa cazzo lo promuovete a fare?\'',negative
'\'decreto legge x ius soli : una clamorosa sciocchezza.\'',negative
'\'dedicato a quei simpaticoni che fanno lo sciopero della fame pro ius soli nelle loro comode e riscaldate casette ben arredate.\'',negative
'\'dello iussoli mi piace assai che la sinistra superiore per diritto divino ha perso.\'',negative
'\'\\\"dello ius soli:\\\"\\\"me ne frego!!\\\"\\\", al primo posto gli italiani!!!\\\"\'',negative
'\'\\\"di preciso, come si \\\"\\\"guadagna\\\"\\\" questa cittadinanza italiana? iussoli\\\"\'',negative
'\'diamo lo ius soli anche a questi?\'',negative
'\'diamo lo iussoli anche a stamerda? \'',negative
'\'\\\"difatti il popolo italiano, molto piu avanti della sua classe politica ha convinto la classe politica a non approvare lo ius soli!\\\"\'',negative
'\'dite ai globalisti che gli italiani non vogliono lo ius soli\'',negative
'\'\\\"dovete provare solo vergogna. fate schifo, tutti. altroche iussoli, i terremotati sono la priorita.\\\"\'',negative
'\'\\\"dovresti andare a leggerti qualche sondaggio, comunque meglio salvini la meloni e berlusconi che i  stelle, la loro priorita e lo ius soli come il pd e questo a me basta per farli scendere all ultimo gradino e come me la pensano in tanti\\\"\'',negative
'\'e anche lo iussoli ce lo siamo levati dai coglioni! buon natale a tutti\'',negative
'\'\\\"e anche oggi vincete domani ... anzi, fra  anni!! fottetevi voi e lo iussoli! noiussoli\\\"\'',negative
'\'e ancora parlano di iussoli vergogna cacciateli\'',negative
'\'e andiamooooo!!! no iussoli\'',negative
'\'\\\"e basta co sto iussoli manco a natale c\\\'avete lanciato in pace! ma non ce l\\\'avete vita, ragazza, famiglia? ma che peroo !!!\\\"\'',negative
'\'e basta...che du cojoni co sto ius soli\'',negative
'\'e che si metta un punto per sempre allo ius soli. gli italiani siamo noi. stop\'',negative
'\'\\\"e ci mancava pure lo ius soli ! in sei anni avete rovinato il \\\"\\\" made in italy \\\"\\\" , ci avete fatto invadere da milioni di extracomunitari, profughi , delinquenti e altro ........... grazie di tutto !!!\\\"\'',negative
'\'\\\"e continuano a rompere le palle con questo \\\"\\\"ius soli\\\"\\\": non vogliono capire che la maggioranza degli italiani e contraria?\\\"\'',negative
'\'\\\"e dopo leggo piu contrari per sto ius soli che favorevoli, se il volere di un cittadino italiano serva a qualcosa!!\\\"\'',negative
'\'\\\"e meno male che e marocchina , pensa arriva gia da un paese che non e in guerra ,avrebbe avuto lo iussoli cosi pure i figli non si potevano piu estradare. che sia chiaro certa feccia deve sparire dallitalia.\\\"\'',negative
'\'\\\"e meno male... noiussoli.. perche uno iussoli c\\\'e gia, non occorre un\\\'altra iussola contro il popolo italiano... ciaone..\\\"\'',negative
'\'e niente iussoli spiace a mai piu rivederla\'',negative
'\'e vaffanculo allo iussoli\'',negative
'\'e\\\' bello vedervi rosicare per lo iussoli.\'',negative
'\'e\\\' chiaro che l\\\'unico scopo della sinistra per spingere lo ius soli e\\\' prendere voti\'',negative
'\'\\\"e\\\' inaccettabile che gli stranieri, i quali non hanno ottenuto lo ius soli, per ripicca pretendano, loro , di voler togliere la cittadinanza italiana a chi e\\\' veramente italiano ! solo in un paese allo sfascio come il nostro puo\\\' succedere !\\\"\'',negative
'\'ecco a chi volete dare la cittadinanza. cacciaallestreghe noiussoli iussoli pd ms lega fi fdi espresso larepubblica saviano\'',negative
'\'\\\"ed ora al voto per vincere con e il centrodestra unito, archiviando e... iussoli\\\"\'',negative
'\'ennesima dimostrazione di ignoranza abissale. una legge esiste gia e garantisce a certe condizioni la cittadinanza italiana agli stranieri che siano nati o meno in italia. mistificazione colossale pressapochismo e incitamento all\\\'odio sociale di chi insiste su iussoli\'',negative
'\'\\\"elezioni noiussoli finalmente a camere sciolte cessa il pericolo che venga approvata quella legge infame. votiamo in modo che quelli che vogliono lo ius soli perdano in tutti i collegi, neanche un voto a sinistra/pd/ms noiussoli\\\"\'',negative
'\'ennesima prova che non serve lo ius soli\'',negative
'\'\\\"esiste gia una buona legge che consente ai figli di immigrati di scegliere di diventare italiani a tutti gli effetti al compimento del  anno lo ius soli e solo una mossa per raccofliere voti da parte della \\\"\\\"sinistra\\\"\\\" italiana riferendosi anche a confusi presupposti ideologici\\\"\'',negative
'\'essere contrari allo ius soli non significa essere razzisti.\'',negative
'\'evviva no ius soli...!!per sempre..!!!\'',negative
'\'\\\"e finita, e finita per davvero. mattarella scioglie le camere. finisce la legislatura peggiore. niente ius soli e adesso si vota. vediamo che ne pensano gli italiani. elezioni salvinipremier mns\\\"\'',negative
'\'e inutile che ce la menano coi ragazzini iussoli non e altro che un mancino tentativo di importare esercito elettorale di riserva\'',negative
'\'e la cosa piu ovvia. italiani si nasce non si diventa x legge. no ius soli\'',negative
'\'e notizia di pochi minuti fa : manca il numero legale lo iussoli non sara approvato! festeggio !\'',negative
'\'e quello che mirano i musulmani con la ius soli!! dobbiamo difenderci da questa follia !!!\'',negative
'\'e un natale piu sereno e cristiano senza la merda dello iussoli buone feste a tutti i veri italiani\'',negative
'\'\\\"fa piacere vedere tutti questi piddini appellarsi a mattarella, renzi, orfini e chicchessia per lapprovazione dello iussoli.. del resto,i diritti degli italiani li hanno distrutti..devono pur trovare qualcuno che li voti.. a marzo ce lo ricorderemo. /\\\"\'',negative
'\'facciamo un referendum e vediamo quanti sono gli italiani che vogliono lo ius soli. quando parli di bigotti includi anche la comunita islamica?\'',negative
'\'\\\"gli immigrati che conosco io e che attualmente hanno il diritto di voto, non vanno a votare, anche se sono qui da vent\\\'anni..non so se e un bene o un male che non vadano a votare...personalmente non sono cosi affezionata allo ius soli...i diritti ce l\\\'hanno \\\"\'',negative
'\'\\\"gli immigrati che conosco io non sentono il bisogno dello ius soli piuttosto vorrebbero contratti di lavoro piu stabili e garantiti,\\\"\'',negative
'\'\\\"gli immigrati sono \\\"\\\"incentivati\\\"\\\" a far figli con lo ius soli, mentre gli italiani evitano di farlo e si esulta per leggi sulla morte. mondo assurdo.\\\"\'',negative
'\'\\\"graze ai senatori della lega che sono riusciti a far saltare quella porcheria della sostituzione etnica avente come nome \\\"\\\"ius soli\\\"\\\"!\\\"\'',negative
'\'grazie . questa cosa dimostra la totale infondatezza delle tesi di questi cialtroni. lo ius soli e una boiata.\'',negative
'\'grazie a dio di ius soli non sentiremo piu parlarne!\'',negative
'\'\\\"grazie alla lega, legge sullo ius soli affossata: la cittadinanza va desiderata, maturata e meritata, non si regala, ne ora, ne mai! primagliitaliani\\\"\'',negative
'\'\\\"grazie babbo natale!!! unicef, varie ong, coop e associazione avete finito di pappareeee!!! ius soli .....ciao ciao!!! stop all\\\'integrazione dei vostri conti correnti!!!\\\"\'',negative
'\'il  degli  mila ragazzini che rientrano nello iussoli sono di fede cattolica. ci stiamo invadendo a casa nostra. immigrazione\'',negative
'\'\\\"il pd cerca di dare il colpo di grazia agli italiani..com se non bastassero i danni che hanno gia? fatto....cittadinanza, al senato manca il numero sullo ius soli. calderoli: \\\"\\\"e? morto e sepolto\\\"\\\"\\\"\'',negative
'\'\\\"urlando continuamente fascista a chi non era in accordo con i loro progetti, ha trasformato l\\\' antifascismo in pagliacciata ed ha spalancato la porta alla destra estrema. molti diciottenni sono su posizioni nazifasciste. la iussoli gentiloni marzo\\\"\'',negative
'\'\\\"il pd ha portato centinaia di migliaia di africani in italia da mantenere a vita: euro al giorno agli adulti , euro al giorno ai minori. ai terremotati delle marche ,casette di legno inagibili,rotte,sporche,e per poco anche lo ius soli.\\\"\'',negative
'\'il pd islamico minaccia chi e? contrario ius soli...ma va a c....\'',negative
'\'\\\"il pd perde milioni di elettori e ancora rompono i coglioni con questo iussoli i voti si guadagnano con fatti concreti verso i cittadini piu? deboli, non si comprano come siete abituati a fare, stop ius soli!!!!!! dicembre iussoli natale unapoltronaperdue\\\"\'',negative
'\'\\\"il pd tranquillizza i terremotati... \\\"\\\"manterremo tutti gli impegni presi, con l\\\'approvazione dello iussoli ogni avente diritto trovera?  profughi da mantenere\\\"\\\"!\\\"\'',negative
'\'\\\"il popolo italiano e\\\' contrario,secondo me,giustamente ad accettare agli immigrati, ma lo ius soli e\\\' un\\\'altra cosa \\\"\'',negative
'\'il popolo italiano non vuole lo iussoli se lo metta bene in testa e la smetta con la sua arroganza e prepotenza grasso\'',negative
'\'\\\"il portavoce unicef italia si scusa per la caduta di stile su twitter, era troppo arrabbiato per la mancanza di ius soli. (ma unicef e? per aiutare i bambini, anche quelli italiani, non per promuovere in italia lo ius soli)\\\"\'',negative
'\'\\\"il problema e? che i pro ius soli come la combriccola del ecc, hanno la pancia piena e il culo ben poggiato, tutto qui. avendo il ventre colmo di ogni ben di dio hanno perso il senso delle priorita\\\' e ci mettono in poverta?\\\"\'',negative
'\'\\\"il problema e? la corruzione, levasione fiscale, la mafia che costruisce case con la sabbia a volte anche in zone a rischio, il menefreghismo e la casta politica. altro che iussoli\\\"\'',negative
'\'il ricongiungimento familiare lo puoi richiedere anche con il permesso di soggiorno non serve la cittadinanza che centra con lo ius soli? nulla. ripeto: studia!\'',negative
'\'il senato affossa lo ius soli. ed anche questanno lo spirito natalizio e? salvo. iussoli natale dicembre\'',negative
'\'\\\"il senato da una lieta notizia, lo iussoli e? morto! ma chi fa digiunoiussoli continui pure e faccia quest\\\'altro favore agli italiani! / via\\\"\'',negative
'\'il soli ve lo concediamo. lo iussoli mai \'',negative
'\'\\\"il suo e? il primo tweet che leggo a spiegare le reali differenze tra minori stranieri e minori  credo che vi si possa ovviare anche senza ius soli,che in assenza di regolamentazione dell\\\'immigrazione mi pare assai fuori luogo\\\"\'',negative
'\'\\\"il tentativo last minute di approvare iussoli non e? legato alla supposta \\\"\\\"civilta?\\\"\\\" del provvedimento ma assai piu? banalmente al tentativo di recuperare una alleanza pd leu che consentirebbe ad entrambi un congruo numero di poltrone. punto\\\"\'',negative
'\'\\\"il vangelo secondo luca: famiglia di profughi mediorientali pretende alloggio in albergo; negatogli, occupano una stalla. il figlio, nato senza ius soli, da adulto diventera? terrorista.\\\"\'',negative
'\'immagino la boldrini si riferisca al job act.....con cui gli italiani hanno perso tutti i diritti sul lavoro e alle leggi sul limmigrazione con cui gli extracomunitari hanno guadagnato un sacco di diritti.... ci mancava solo lo ius soli...... \'',negative
'\'\\\"in africa ci mandiamo tutti i pro ius soli... dovrebbero stare bene con i loro amici. io sto bene qui, grazie.\\\"\'',negative
'\'i cittadini italiani non vogliono lo iussoli grazie!\'',negative
'\'\\\"i fanatici dello ius soli si consoleranno pensando quanto sono razzisti, fascisti e ignoranti gli italiani che loro vogliono sostituire.\\\"\'',negative
'\'i ladri si devono vergognare. la legge sullo iussoli che e? stata presentata prevedeva di dare la cittadinanza agli stranieri adulti in italia da  anni. questo e? come comprare voti. usare i bambini per avere qualche voto in piu? e? da vomito\'',negative
'\'i pidioti faranno comunque una qualche porcata pur di approvare lo ius soli\'',negative
'\'i pidioti sono per lo ius soli e? stato detto chiaramente percio? badate bene gente\'',negative
'\'i piddini devono finire nella con lo ius soli\'',negative
'\'\\\"i piddini sono da ricovero immediato. spero che almeno a gentiloni e a mattarella sia rimasto il buon senso, o le conseguenze saranno disastrose... iussoli amen \\\"\'',negative
'\'i problemi ce li hai tu. mentali. no ius soli. no islam.\'',negative
'\'\\\"i ragazzi diventeranno italiani a  anni anche senza iussoli. quel che gli si toglie e? la fiducia nel paese in cui vivono. ma, anche in questo, saranno uguali a tanti altri italiani. noiussoli\\\"\'',negative
'\'iussoli e adesso fuori dai coglioni.\'',negative
'\'\\\"iussoli e basta, gli italiani non lo vogliono e ancora insistete.\\\"\'',negative
'\'\\\"l\\\'italia agli italiani, lo ius soli agli isolani!\\\"\'',negative
'\'\\\"la boldrini si dice rammaricata per non avere realizzato ius soli, ddl omofobia e cognome delle mamme ai figli. se questa e? la sinistra odierna allora berlinguer voterebbe senza esitazioni casapound. e non vi spiego neanche il perche? tanto voi globalisti non capireste.\\\"\'',negative
'\'\\\"la cittadinanza non si regala, si merita. sono piu? che soddisfatto per gli esiti dello iussoli. politica governo lega forzaitalia\\\"\'',negative
'\'\\\"la cosa piu\\\' bella e\\\' lo stop allo iussoli, spero definitivo.\\\"\'',negative
'\'\\\"leggete articolo su no ius soli, la cittadinanza non si regala.\\\"\'',negative
'\'lo ius soli non lo vogliono i quattro quinti del popolo italiano\'',negative
'\'\\\"litalia e? il paese che lotta per disconoscere i diritti altrui, piuttosto che per vedersi riconosciuti i propri. iussoli\\\"\'',negative
'\'no ius soli . ce labbiamo fatta!\'',negative
'\'no ius soli e che goduria\'',negative
'\'no ius soli! la cittadinanza non si regala!\'',negative
'\'\\\"no ius soli, no islamizzazione.\\\"\'',negative
'\'non si puo? dare la cittadinanza a chi non sa nemmeno parlare italiano. iussoli\'',negative
'\'qualche mese e? passato dall\\\'inizio dello sciopero della fame per lo iussoli . saranno sempre vivi i nostri parlamentari? \'',negative
'\'siete dei finti buonisti. lo ius soli e? solo una moda del momento\'',negative
'\'signora lo ius soli e? una sola per gli italiani. gli italiani non la  popolo e? sovrano si faccia referendum! e se questi politici criminali si ostinano e? solo perche? appunto sono criminali e sperano che almeno i migranti li votino. noiussoli\'',negative
